-------------------------------------------------------------------------------
Test set: basicboot.Camp3ApplicationTests
-------------------------------------------------------------------------------
Tests run: 1, Failures: 0, Errors: 1, Skipped: 0, Time elapsed: 1.809 s <<< FAILURE! - in basicboot.Camp3ApplicationTests
initializationError(basicboot.Camp3ApplicationTests)  Time elapsed: 0.003 s  <<< ERROR!
java.lang.IllegalStateException: Unable to find a @SpringBootConfiguration, you need to use @ContextConfiguration or @SpringBootTest(classes=...) with your test

