c:\codecamp\testfinal\src\main\java\boot\service\AppUserService.java
c:\codecamp\testfinal\src\main\java\boot\util\PasswordUtil.java
c:\codecamp\testfinal\src\main\java\boot\dao\AppRoleDao.java
c:\codecamp\testfinal\src\main\java\boot\entity\AppUser.java
c:\codecamp\testfinal\src\main\java\boot\service\UserDetailsServiceImpl.java
c:\codecamp\testfinal\src\main\java\boot\entity\AppRole.java
c:\codecamp\testfinal\src\main\java\boot\entity\UserRole.java
c:\codecamp\testfinal\src\main\java\boot\util\WebUtil.java
c:\codecamp\testfinal\src\main\java\boot\config\CustomHikariConfig.java
c:\codecamp\testfinal\src\main\java\boot\controller\LoginController.java
c:\codecamp\testfinal\src\main\java\boot\repository\AppUserRepository.java
c:\codecamp\testfinal\src\main\java\boot\dao\AppUserDao.java
c:\codecamp\testfinal\src\main\java\boot\repository\AppRoleRepository.java
c:\codecamp\testfinal\src\main\java\boot\config\WebSecurityConfig.java
c:\codecamp\testfinal\src\main\java\boot\config\ViewConfig.java
c:\codecamp\testfinal\src\main\java\boot\repository\UserRoleRepository.java
c:\codecamp\testfinal\src\main\java\boot\Camp3Application.java
